<?xml version="1.0" encoding="utf-8"?>
<!-- Generator: Adobe Illustrator 16.0.4, SVG Export Plug-In . SVG Version: 6.00 Build 0)  -->
<!DOCTYPE svg PUBLIC "-//W3C//DTD SVG 1.1//EN" "http://www.w3.org/Graphics/SVG/1.1/DTD/svg11.dtd">
<svg version="1.1" id="Layer_1" xmlns="http://www.w3.org/2000/svg" xmlns:xlink="http://www.w3.org/1999/xlink" x="0px" y="0px"
	 width="108px" height="108px" viewBox="0 0 108 108" enable-background="new 0 0 108 108" xml:space="preserve">
<g>
	<g>
		<path fill="#E65345" d="M38.849,36.888c-0.417-2.337-0.68-4.64-0.746-6.477h11.463L31.389,9.556L13.213,30.41l11.493,0
			c0.062,2.598,0.389,5.625,0.96,8.828L38.849,36.888z"/>
		<path fill="#E65345" d="M43.894,50.93c-0.973-0.974-2.608-4.002-4.011-9.335l-12.951,3.408c1.873,7.118,4.394,12.298,7.493,15.397
			l1.631,1.632l9.47-9.47L43.894,50.93z"/>
		<path fill="#E65345" d="M60.625,79.307l-13.364,0.878c0.029,0.429,0.044,0.871,0.044,1.31v6.496h13.391v-6.496
			C60.695,80.763,60.672,80.028,60.625,79.307z"/>
		<path fill="#E65345" d="M50.966,58.001l-1.652-1.652l-9.47,9.469l1.652,1.654c2.438,2.438,4.203,5.469,5.105,8.768l12.917-3.534
			C58.003,67.165,55.046,62.082,50.966,58.001z"/>
	</g>
	<path fill="#E65345" d="M94.787,30.411L76.611,9.556L58.435,30.41h10.142v6.496c0,4.94-1.924,9.584-5.417,13.077l-7.071,7.072
		c-6.527,6.529-10.122,15.208-10.122,24.439v9.845c0,4.438,3.598,8.034,8.034,8.034c4.438,0,8.035-3.597,8.035-8.034v-9.845
		c0-4.939,1.924-9.583,5.415-13.076l7.072-7.071c6.529-6.529,10.123-15.208,10.123-24.441v-6.495H94.787z"/>
</g>
<g id="ic_x5F_volumeUp_2">
</g>
<g id="ic_x5F_volumeOff_2">
</g>
</svg>
